C:\Users\Anja\Documents\NetBeansProjects\plus-plus\test-app\src\main\java\rs\plusplustnt\testapp\thread\PackageThread.java
C:\Users\Anja\Documents\NetBeansProjects\plus-plus\test-app\src\main\java\rs\plusplustnt\testapp\json\JsonFileOperation.java
C:\Users\Anja\Documents\NetBeansProjects\plus-plus\test-app\src\main\java\rs\plusplustnt\testapp\main\Main.java
C:\Users\Anja\Documents\NetBeansProjects\plus-plus\test-app\src\main\java\rs\plusplustnt\testapp\controller\Controller.java
C:\Users\Anja\Documents\NetBeansProjects\plus-plus\test-app\src\main\java\rs\plusplustnt\testapp\thread\ClientThread.java
C:\Users\Anja\Documents\NetBeansProjects\plus-plus\test-app\src\main\java\rs\plusplustnt\testapp\communication\Communication.java
C:\Users\Anja\Documents\NetBeansProjects\plus-plus\test-app\src\main\java\rs\plusplustnt\testapp\domain\Package.java
